BimboInventoryDemand
…
Using dplyr to group/join data and get some insights

Top 10 sum of Demanda_uni_equil by State

df_sample %>%
  inner_join(df_town, by = 'Agencia_ID') %>%
  select(State, Demanda_uni_equil) %>%
  group_by(State) %>%
  summarize(ave_Demanda = sum(Demanda_uni_equil)) %>%
  arrange(desc(ave_Demanda))

## `summarise()` ungrouping output (override with `.groups` argument)

## # A tibble: 33 x 2
##    State            ave_Demanda
##    <chr>                  <int>
##  1 ESTADO DE MXICO       96583
##  2 MXICO, D.F.           86237
##  3 JALISCO                67292
##  4 NUEVO LEN             43646
##  5 GUANAJUATO             39883
##  6 PUEBLA                 36646
##  7 VERACRUZ               32227
##  8 MICHOACN              28298
##  9 TAMAULIPAS             21374
## 10 CHIHUAHUA              21031
## # ... with 23 more rows

Top 10 sum of Demanda_uni_equil by Town

df_sample %>%
  inner_join(df_town, by = 'Agencia_ID') %>%
  select(Town, Demanda_uni_equil) %>%
  group_by(Town) %>%
  summarize(ave_Demanda = sum(Demanda_uni_equil)) %>%
  arrange(desc(ave_Demanda))

## `summarise()` ungrouping output (override with `.groups` argument)

## # A tibble: 256 x 2
##    Town                      ave_Demanda
##    <chr>                           <int>
##  1 2013 AG. MEGA NAUCALPAN         14080
##  2 2011 AG. SAN ANTONIO            12304
##  3 2029 AG.IZTAPALAPA 2            11352
##  4 2251 AGUASCALIENTES NORTE        7969
##  5 2088 AG. CEYLAN                  7732
##  6 2309 NORTE                       7651
##  7 2017 AG. SANTA CLARA             6858
##  8 2019 AG. XALOSTOC                6724
##  9 2396 RUIZ CORTINEZ               6443
## 10 2293 GRANJAS MARINELA            6279
## # ... with 246 more rows

Top 10 sum of Demanda_uni_equil by NombreCliente

df_sample %>%
  inner_join(df_cliente, by = 'Cliente_ID') %>%
  select(NombreCliente, Demanda_uni_equil) %>%
  group_by(NombreCliente) %>%
  summarize(ave_Demanda = sum(Demanda_uni_equil)) %>%
  arrange(desc(ave_Demanda))

## `summarise()` ungrouping output (override with `.groups` argument)

## # A tibble: 43,663 x 2
##    NombreCliente               ave_Demanda
##    <chr>                             <int>
##  1 NO IDENTIFICADO                  109168
##  2 PUEBLA REMISION                   23084
##  3 LUPITA                             3421
##  4 AUTOBUSES DE LA PIEDAD             3147
##  5 CEDIS CADENA COMERCIAL OXXO        1986
##  6 MARY                               1983
##  7 CHEDRAUI TABASCO II                1617
##  8 JALISCO REMISION                   1426
##  9 TOKS GARZA SADA                    1400
## 10 LA PASADITA                        1317
## # ... with 43,653 more rows

Top 10 sum of Demanda_uni_equil by NombreProducto

df_sample %>%
  inner_join(df_produto, by = 'Producto_ID') %>%
  select(NombreProducto, Demanda_uni_equil) %>%
  group_by(NombreProducto) %>%
  summarize(ave_Demanda = sum(Demanda_uni_equil)) %>%
  arrange(desc(ave_Demanda))

## `summarise()` ungrouping output (override with `.groups` argument)

## # A tibble: 941 x 2
##    NombreProducto                           ave_Demanda
##    <chr>                                          <int>
##  1 Nito 1p 62g Central BIM 2425                   32822
##  2 Rebanada 2p 55g BIM 1284                       28799
##  3 Nito 1p 62g BIM 1278                           24608
##  4 Gansito 1p 50g MTB MLA 43285                   20544
##  5 Bolsa Mini Rocko 40p 13g CU MLA 36610          17637
##  6 Mantecadas Vainilla 4p 125g BIM 1240           16195
##  7 Donas Azucar 4p 105g BIM 1250                  15442
##  8 Polvoroncitos Panera 40p 16 25g TR 45143       14839
##  9 Donitas Espolvoreadas 6p 105g BIM 1242         13996
## 10 Pan Blanco 640g BIM 2233                       13376
## # ... with 931 more rows
…
